Pipeline.vcd
$date
	Tue Dec 26 19:56:07 2017
$end
$version
	Icarus Verilog
$end
$timescale
	1ns
$end
$scope module Test_pipeline $end
$scope module P $end
$var wire 32 ! AluResult [31:0] $end
$var wire 32 " AluResult1 [31:0] $end
$var wire 5 # AluSignal [4:0] $end
$var wire 32 $ BranchPC [31:0] $end
$var wire 32 % BranchTarget [31:0] $end
$var wire 1 & Clk $end
$var wire 32 ' D1 [31:0] $end
$var wire 32 ( D2 [31:0] $end
$var wire 32 ) Dm1 [31:0] $end
$var wire 32 * Dm2 [31:0] $end
$var wire 2 + Flags [1:0] $end
$var wire 1 , I $end
$var wire 32 - Immx [31:0] $end
$var wire 32 . Instruction [31:0] $end
$var wire 1 / IsBeq $end
$var wire 1 0 IsBgt $end
$var wire 1 1 IsBranchTaken $end
$var wire 1 2 IsCall $end
$var wire 1 3 IsImmediate $end
$var wire 1 4 IsLd $end
$var wire 1 5 IsRet $end
$var wire 1 6 IsSt $end
$var wire 1 7 IsUBranch $end
$var wire 1 8 IsWb $end
$var wire 32 9 LdResult [31:0] $end
$var wire 32 : Op1 [31:0] $end
$var wire 32 ; Op2 [31:0] $end
$var wire 5 < Opcode [4:0] $end
$var wire 4 = Rd [3:0] $end
$var wire 32 > pc_current [31:0] $end
$var reg 32 ? A [31:0] $end
$var reg 4 @ A1 [3:0] $end
$var reg 4 A A2 [3:0] $end
$var reg 4 B A3 [3:0] $end
$var reg 32 C Am1 [31:0] $end
$var reg 32 D Am2 [31:0] $end
$var reg 32 E B [31:0] $end
$var reg 32 F D3 [31:0] $end
$var reg 32 G Dm3 [31:0] $end
$var reg 1 H RW $end
$var reg 1 I Reset $end
$scope module IF1 $end
$var wire 32 J BranchPC [31:0] $end
$var wire 1 & Clk $end
$var wire 1 1 IsBranchTaken $end
$var reg 32 K Instruction [31:0] $end
$var reg 32 L PC [31:0] $end
$var integer 32 M ind [31:0] $end
$var reg 32 N pc_current [31:0] $end
$var reg 32 O pc_temp [31:0] $end
$upscope $end
$scope module PR1 $end
$var wire 1 & Clk $end
$var reg 32 P Instruction [31:0] $end
$var reg 32 Q pc_current [31:0] $end
$upscope $end
$scope module OF1 $end
$var wire 32 R Instruction [31:0] $end
$var wire 1 5 IsRet $end
$var wire 1 6 IsSt $end
$var wire 32 S pc_current [31:0] $end
$var reg 32 T BranchTarget [31:0] $end
$var reg 1 U I $end
$var reg 16 V Imm_temp [15:0] $end
$var reg 32 W Immx [31:0] $end
$var reg 32 X Op1 [31:0] $end
$var reg 32 Y Op2 [31:0] $end
$var reg 5 Z Opcode [4:0] $end
$var reg 4 [ Rd [3:0] $end
$var reg 27 \ branch_temp [26:0] $end
$upscope $end
$scope module PR2 $end
$var wire 1 & Clk $end
$var reg 5 ] AluSignal [4:0] $end
$var reg 32 ^ BranchTarget [31:0] $end
$var reg 32 _ Immx [31:0] $end
$var reg 32 ` Instruction [31:0] $end
$var reg 1 a IsBeq $end
$var reg 1 b IsBgt $end
$var reg 1 c IsCall $end
$var reg 1 d IsImmediate $end
$var reg 1 e IsLd $end
$var reg 1 f IsRet $end
$var reg 1 g IsSt $end
$var reg 1 h IsUBranch $end
$var reg 1 i IsWb $end
$var reg 32 j Op1 [31:0] $end
$var reg 32 k Op2 [31:0] $end
$var reg 32 l pc_current [31:0] $end
$upscope $end
$scope module EX1 $end
$var wire 5 m AluSignal [4:0] $end
$var wire 32 n BranchTarget [31:0] $end
$var wire 32 o Immx [31:0] $end
$var wire 1 p IsBeq $end
$var wire 1 q IsBgt $end
$var wire 1 r IsImmediate $end
$var wire 1 s IsRet $end
$var wire 1 t IsUBranch $end
$var wire 32 u Op1 [31:0] $end
$var wire 32 v Op2 [31:0] $end
$var reg 32 w AluResult1 [31:0] $end
$var reg 32 x BranchPC [31:0] $end
$var reg 1 y IsBranchTaken $end
$var reg 1 z w1 $end
$var reg 1 { w2 $end
$upscope $end
$scope module PR3 $end
$var wire 1 & Clk $end
$var reg 32 | AluResult1 [31:0] $end
$var reg 5 } AluSignal [4:0] $end
$var reg 32 ~ BranchTarget [31:0] $end
$var reg 32 !" Instruction [31:0] $end
$var reg 1 "" IsBeq $end
$var reg 1 #" IsBgt $end
$var reg 1 $" IsCall $end
$var reg 1 %" IsImmediate $end
$var reg 1 &" IsLd $end
$var reg 1 '" IsRet $end
$var reg 1 (" IsSt $end
$var reg 1 )" IsUBranch $end
$var reg 1 *" IsWb $end
$var reg 32 +" Op2 [31:0] $end
$var reg 32 ," pc_current [31:0] $end
$upscope $end
$scope module MA1 $end
$var wire 32 -" AluResult1 [31:0] $end
$var wire 1 ." IsLd $end
$var wire 1 /" IsSt $end
$var wire 32 0" Op2 [31:0] $end
$var reg 32 1" LdResult [31:0] $end
$upscope $end
$scope module PR4 $end
$var wire 1 & Clk $end
$var reg 32 2" AluResult1 [31:0] $end
$var reg 5 3" AluSignal [4:0] $end
$var reg 32 4" BranchTarget [31:0] $end
$var reg 32 5" Instruction [31:0] $end
$var reg 1 6" IsBeq $end
$var reg 1 7" IsBgt $end
$var reg 1 8" IsCall $end
$var reg 1 9" IsImmediate $end
$var reg 1 :" IsLd $end
$var reg 1 ;" IsRet $end
$var reg 1 <" IsSt $end
$var reg 1 =" IsUBranch $end
$var reg 1 >" IsWb $end
$var reg 32 ?" LdResult [31:0] $end
$var reg 4 @" Rd [3:0] $end
$var reg 32 A" pc_current [31:0] $end
$upscope $end
$scope module WB1 $end
$var wire 32 B" AluResult1 [31:0] $end
$var wire 1 C" IsCall $end
$var wire 1 D" IsLd $end
$var wire 1 E" IsWb $end
$var wire 32 F" LdResult [31:0] $end
$var wire 4 G" Rd [3:0] $end
$var wire 32 H" pc_current [31:0] $end
$upscope $end
$scope module C1 $end
$var wire 1 , I $end
$var wire 5 I" Opcode [4:0] $end
$var reg 5 J" AluSignal [4:0] $end
$var reg 1 K" IsBeq $end
$var reg 1 L" IsBgt $end
$var reg 1 M" IsCall $end
$var reg 1 N" IsImmediate $end
$var reg 1 O" IsLd $end
$var reg 1 P" IsRet $end
$var reg 1 Q" IsSt $end
$var reg 1 R" IsUBranch $end
$var reg 1 S" IsWb $end
$upscope $end
$scope module RF1 $end
$var wire 4 T" A1 [3:0] $end
$var wire 4 U" A2 [3:0] $end
$var wire 4 V" A3 [3:0] $end
$var wire 1 & Clk $end
$var wire 32 W" D3 [31:0] $end
$var wire 1 8 IsWb $end
$var wire 1 X" Reset $end
$var reg 32 Y" D1 [31:0] $end
$var reg 32 Z" D2 [31:0] $end
$var reg 16 [" ind [15:0] $end
$upscope $end
$scope module M1 $end
$var wire 32 \" Am1 [31:0] $end
$var wire 32 ]" Am2 [31:0] $end
$var wire 32 ^" Dm3 [31:0] $end
$var wire 1 _" RW $end
$var reg 32 `" Dm1 [31:0] $end
$var reg 32 a" Dm2 [31:0] $end
$var reg 32 b" a1 [31:0] $end
$var reg 32 c" a2 [31:0] $end
$var integer 32 d" ind [31:0] $end
$upscope $end
$scope module ALU1 $end
$var wire 32 e" A [31:0] $end
$var wire 32 f" A_signed [31:0] $end
$var wire 5 g" AluSignal [4:0] $end
$var wire 32 h" B [31:0] $end
$var reg 32 i" AluResult [31:0] $end
$var reg 2 j" Flags [1:0] $end
$upscope $end
$upscope $end
$upscope $end
$enddefinitions $end
#0
$dumpvars
bx j"
bx i"
bx h"
bx g"
bx f"
bx e"
bx d"
bx c"
bx b"
bx a"
bx `"
x_"
bx ^"
bx ]"
bx \"
b10000 ["
bx Z"
bx Y"
1X"
bx W"
bx V"
bx U"
bx T"
xS"
xR"
xQ"
xP"
xO"
xN"
xM"
xL"
xK"
bx J"
bx I"
bx H"
bx G"
bx F"
xE"
xD"
xC"
bx B"
bx A"
bx @"
bx ?"
x>"
x="
x<"
x;"
x:"
x9"
x8"
x7"
x6"
bx 5"
bx 4"
bx 3"
bx 2"
bx 1"
bx 0"
x/"
x."
bx -"
bx ,"
bx +"
x*"
x)"
x("
x'"
x&"
x%"
x$"
x#"
x""
bx !"
bx ~
bx }
bx |
x{
xz
xy
bx x
bx w
bx v
bx u
xt
xs
xr
xq
xp
bx o
bx n
bx m
bx l
bx k
bx j
xi
xh
xg
xf
xe
xd
xc
xb
xa
bx `
bx _
bx ^
bx ]
bx \
bx [
bx Z
bx Y
bx X
bx W
bx V
xU
bx T
bx S
bx R
bx Q
bx P
b100 O
b0 N
b100 M
b0 L
b1001100110000000000000000000001 K
bx J
1I
xH
bx G
bx F
bx E
bx D
bx C
bx B
bx A
bx @
bx ?
b0 >
bx =
bx <
bx ;
bx :
bx 9
x8
x7
x6
x5
x4
x3
x2
x1
x0
x/
b1001100110000000000000000000001 .
bx -
x,
bx +
bx *
bx )
bx (
bx '
0&
bx %
bx $
bx #
bx "
bx !
$end
#1
0I
0X"
#5
1&
#10
b0 Y
b0 ;
b0 X
b0 :
b0 Z"
b0 (
b0 Y"
b0 '
0L"
00
0K"
0/
0M"
02
0R"
07
0P"
05
0O"
04
0Q"
06
1S"
18
b1001 J"
b1001 #
b1001 g"
1N"
13
b0 A
b0 U"
b0 @
b0 T"
b11000000000000000000000100 T
b11000000000000000000000100 %
b1 W
b1 -
b1 V
1U
1,
b11 [
b11 =
b1001 Z
b1001 <
b1001 I"
b11000000000000000000000100 \
b0 Q
b0 S
b1001100110000000000000000000001 P
b1001100110000000000000000000001 R
b100 N
b100 >
b1001100010000000000000000000001 .
b1000 O
b1001100010000000000000000000001 K
b100 M
0&
#15
1&
#20
b1000000000000000000001000 T
b1000000000000000000001000 %
b1 [
b1 =
b1000000000000000000000100 \
b1001 }
0$"
0)"
1*"
1%"
0'"
0#"
0""
0&"
0."
0("
0/"
b0 +"
b0 0"
b11000000000000000000000100 ~
b0 l
b1001100110000000000000000000001 `
b100 Q
b100 S
b1001100010000000000000000000001 P
b1001100010000000000000000000001 R
b1 w
b1 "
b1 i"
b1 !
b1000 N
b1000 >
b1100 O
b1001100100000000000000000001001 K
b1001100100000000000000000001001 .
b100 M
b1 E
b1 h"
b0 ?
b0 f"
b0 e"
0y
01
0{
0z
b11000000000000000000000100 x
b11000000000000000000000100 $
b11000000000000000000000100 J
0&
b1 _
b1 o
b1001 ]
b1001 m
0c
0h
0t
1i
1d
1r
0f
0s
0b
0q
0a
0p
0e
0g
b0 k
b0 v
b0 j
b0 u
b11000000000000000000000100 ^
b11000000000000000000000100 n
#25
1&
#30
b10000000000000000000101100 T
b10000000000000000000101100 %
b1001 W
b1001 -
b1001 V
b10 [
b10 =
b10000000000000000000100100 \
b1000 Q
b1000 S
b1001100100000000000000000001001 P
b1001100100000000000000000001001 R
b100 l
b1001100010000000000000000000001 `
b1 |
b1 -"
b0 ,"
b1001100110000000000000000000001 !"
b1001 3"
08"
0C"
0="
1>"
1E"
19"
0;"
07"
06"
0:"
0D"
0<"
b11000000000000000000000100 4"
b1100 N
b1100 >
b10000 O
b1001100110000000000000000001111 K
b1001100110000000000000000001111 .
b100 M
b1000000000000000000001000 x
b1000000000000000000001000 $
b1000000000000000000001000 J
0&
b1000000000000000000001000 ^
b1000000000000000000001000 n
#35
1&
#40
b1 F
b1 W"
b11 B
b11 V"
b11000000000000000001001000 T
b11000000000000000001001000 %
b1111 W
b1111 -
b1111 V
b11 [
b11 =
b11000000000000000000111100 \
b11 @"
b11 G"
b0 A"
b0 H"
b1001100110000000000000000000001 5"
b1 2"
b1 B"
b10000000000000000000101100 ~
b100 ,"
b1001100010000000000000000000001 !"
b1000 l
b1001100100000000000000000001001 `
b1100 Q
b1100 S
b1001100110000000000000000001111 P
b1001100110000000000000000001111 R
b1001 w
b1001 "
b1001 i"
b1001 !
b10000 N
b10000 >
b10100 O
b1101000000000000000000000000000 K
b1101000000000000000000000000000 .
b100 M
b1001 E
b1001 h"
b10000000000000000000101100 x
b10000000000000000000101100 $
b10000000000000000000101100 J
0&
b1001 _
b1001 o
b10000000000000000000101100 ^
b10000000000000000000101100 n
#45
1&
#50
b1101 J"
b1101 #
b1101 g"
0N"
03
b10000 T
b10000 %
b0 V
0U
0,
b0 [
b0 =
b1101 Z
b1101 <
b1101 I"
b0 \
b1 B
b1 V"
b10000 Q
b10000 S
b1101000000000000000000000000000 P
b1101000000000000000000000000000 R
b1100 l
b1001100110000000000000000001111 `
b1001 |
b1001 -"
b1000 ,"
b1001100100000000000000000001001 !"
b1 @"
b1 G"
b10000000000000000000101100 4"
b100 A"
b100 H"
b1001100010000000000000000000001 5"
b1111 w
b1111 "
b1111 i"
b1111 !
b10100 N
b10100 >
b10001010001001100000000000000 .
b11000 O
b10001010001001100000000000000 K
b100 M
b1111 E
b1111 h"
b11000000000000000001001000 x
b11000000000000000001001000 $
b11000000000000000001001000 J
0&
b1111 _
b1111 o
b11000000000000000001001000 ^
b11000000000000000001001000 n
#55
1&
#60
b0 w
b0 "
b1 Y
b1 ;
b1 X
b1 :
b0 i"
b0 !
b1 Z"
b1 (
b1 Y"
b1 '
b10 J"
b10 #
b10 g"
b1001 F
b1001 W"
b10 B
b10 V"
b11 A
b11 U"
b1 @
b1 T"
b11111101000100110000000000010100 T
b11111101000100110000000000010100 %
b1100000000000000 V
b101 [
b101 =
b10 Z
b10 <
b10 I"
b101000100110000000000000000 \
b10 @"
b10 G"
b1000 A"
b1000 H"
b1001100100000000000000000001001 5"
b1001 2"
b1001 B"
b1111 |
b1111 -"
b1101 }
0%"
b10000 ~
b1100 ,"
b1001100110000000000000000001111 !"
b10000 l
b1101000000000000000000000000000 `
b10100 Q
b10100 S
b10001010001001100000000000000 P
b10001010001001100000000000000 R
b11000 N
b11000 >
b11100 O
bx K
bx .
b100 M
b0 E
b0 h"
b10000 x
b10000 $
b10000 J
0&
b1101 ]
b1101 m
0d
0r
b10000 ^
b10000 n
#65
1&
#70
bx Y
bx ;
bx X
bx :
bx Z"
bx (
bx Y"
bx '
bx A
bx U"
bx @
bx T"
bx T
bx %
bx V
xU
x,
bx [
bx =
bx Z
bx <
bx I"
bx00 \
b1111 F
b1111 W"
b11 B
b11 V"
b11000 Q
b11000 S
bx P
bx R
b10100 l
b10001010001001100000000000000 `
b0 |
b0 -"
b10000 ,"
b1101000000000000000000000000000 !"
b11 @"
b11 G"
b1101 3"
09"
b10000 4"
b1100 A"
b1100 H"
b1001100110000000000000000001111 5"
b1111 2"
b1111 B"
b1 w
b1 "
b1 i"
b1 !
b11100 N
b11100 >
b100000 O
bx K
b100 M
b1 E
b1 h"
b1 ?
b1 f"
b1 e"
b11111101000100110000000000010100 x
b11111101000100110000000000010100 $
b11111101000100110000000000010100 J
0&
b10 ]
b10 m
b1 k
b1 v
b1 j
b1 u
b11111101000100110000000000010100 ^
b11111101000100110000000000010100 n
#75
1&
#80
b0 F
b0 W"
b0 B
b0 V"
bx T
bx %
bx00 \
b0 @"
b0 G"
b10000 A"
b10000 H"
b1101000000000000000000000000000 5"
b0 2"
b0 B"
b1 |
b1 -"
b10 }
bx +"
bx 0"
bx ~
b10100 ,"
b10001010001001100000000000000 !"
b11000 l
bx `
b11100 Q
b11100 S
bx w
bx "
bx i"
bx !
b100000 N
b100000 >
b100100 O
bx K
b100 M
bx E
bx h"
bx ?
bx f"
bx e"
bx x
bx $
bx J
0&
bx k
bx v
bx j
bx u
bx ^
bx n
#85
1&
#90
bx T
bx %
bx00 \
b1 F
b1 W"
b101 B
b101 V"
b100000 Q
b100000 S
b11100 l
bx |
bx -"
b11000 ,"
bx !"
b101 @"
b101 G"
b10 3"
bx 4"
b10100 A"
b10100 H"
b10001010001001100000000000000 5"
b1 2"
b1 B"
b100100 N
b100100 >
b101000 O
bx K
b100 M
0&
#95
1&
#100
bx F
bx W"
bx B
bx V"
bx T
bx %
bx00 \
bx @"
bx G"
b11000 A"
b11000 H"
bx 5"
bx 2"
bx B"
b11100 ,"
b100000 l
b100100 Q
b100100 S
b101000 N
b101000 >
b101100 O
bx K
b100 M
0&
#105
1&
#110
bx T
bx %
bx00 \
b101000 Q
b101000 S
b100100 l
b100000 ,"
b11100 A"
b11100 H"
b101100 N
b101100 >
b110000 O
bx K
b100 M
0&
#115
1&
#120
bx T
bx %
bx00 \
b100000 A"
b100000 H"
b100100 ,"
b101000 l
b101100 Q
b101100 S
b110000 N
b110000 >
b110100 O
bx K
b100 M
0&
#125
1&
#130
bx T
bx %
bx00 \
b110000 Q
b110000 S
b101100 l
b101000 ,"
b100100 A"
b100100 H"
b110100 N
b110100 >
b111000 O
bx K
b100 M
0&
#135
1&
#140
bx T
bx %
bx00 \
b101000 A"
b101000 H"
b101100 ,"
b110000 l
b110100 Q
b110100 S
b111000 N
b111000 >
b111100 O
bx K
b100 M
0&
#145
1&
#150
bx T
bx %
bx00 \
b111000 Q
b111000 S
b110100 l
b110000 ,"
b101100 A"
b101100 H"
b111100 N
b111100 >
b1000000 O
bx K
b100 M
0&
#155
1&
#160
bx T
bx %
bx00 \
b110000 A"
b110000 H"
b110100 ,"
b111000 l
b111100 Q
b111100 S
b1000000 N
b1000000 >
b1000100 O
bx K
b100 M
0&
#165
1&
#170
bx T
bx %
bx00 \
b1000000 Q
b1000000 S
b111100 l
b111000 ,"
b110100 A"
b110100 H"
b1000100 N
b1000100 >
b1001000 O
bx K
b100 M
0&
#175
1&
#180
bx T
bx %
bx00 \
b111000 A"
b111000 H"
b111100 ,"
b1000000 l
b1000100 Q
b1000100 S
b1001000 N
b1001000 >
b1001100 O
bx K
b100 M
0&
#185
1&
#190
bx T
bx %
bx00 \
b1001000 Q
b1001000 S
b1000100 l
b1000000 ,"
b111100 A"
b111100 H"
b1001100 N
b1001100 >
b1010000 O
bx K
b100 M
0&
#195
1&
#200
bx T
bx %
bx00 \
b1000000 A"
b1000000 H"
b1000100 ,"
b1001000 l
b1001100 Q
b1001100 S
b1010000 N
b1010000 >
b1010100 O
bx K
b100 M
0&
#205
1&
#210
bx T
bx %
bx00 \
b1010000 Q
b1010000 S
b1001100 l
b1001000 ,"
b1000100 A"
b1000100 H"
b1010100 N
b1010100 >
b1011000 O
bx K
b100 M
0&
#215
1&
#220
bx T
bx %
bx00 \
b1001000 A"
b1001000 H"
b1001100 ,"
b1010000 l
b1010100 Q
b1010100 S
b1011000 N
b1011000 >
b1011100 O
bx K
b100 M
0&
#225
1&
#230
bx T
bx %
bx00 \
b1011000 Q
b1011000 S
b1010100 l
b1010000 ,"
b1001100 A"
b1001100 H"
b1011100 N
b1011100 >
b1100000 O
bx K
b100 M
0&
#235
1&
#240
bx T
bx %
bx00 \
b1010000 A"
b1010000 H"
b1010100 ,"
b1011000 l
b1011100 Q
b1011100 S
b1100000 N
b1100000 >
b1100100 O
bx K
b100 M
0&
#245
1&
#250
bx T
bx %
bx00 \
b1100000 Q
b1100000 S
b1011100 l
b1011000 ,"
b1010100 A"
b1010100 H"
b1100100 N
b1100100 >
b1101000 O
bx K
b100 M
0&
#255
1&
#260
bx T
bx %
bx00 \
b1011000 A"
b1011000 H"
b1011100 ,"
b1100000 l
b1100100 Q
b1100100 S
b1101000 N
b1101000 >
b1101100 O
bx K
b100 M
0&
#265
1&
#270
bx T
bx %
bx00 \
b1101000 Q
b1101000 S
b1100100 l
b1100000 ,"
b1011100 A"
b1011100 H"
b1101100 N
b1101100 >
b1110000 O
bx K
b100 M
0&
#275
1&
#280
bx T
bx %
bx00 \
b1100000 A"
b1100000 H"
b1100100 ,"
b1101000 l
b1101100 Q
b1101100 S
b1110000 N
b1110000 >
b1110100 O
bx K
b100 M
0&
#285
1&
#290
bx T
bx %
bx00 \
b1110000 Q
b1110000 S
b1101100 l
b1101000 ,"
b1100100 A"
b1100100 H"
b1110100 N
b1110100 >
b1111000 O
bx K
b100 M
0&
#295
1&
#300
bx T
bx %
bx00 \
b1101000 A"
b1101000 H"
b1101100 ,"
b1110000 l
b1110100 Q
b1110100 S
b1111000 N
b1111000 >
b1111100 O
bx K
b100 M
0&
#305
1&
#310
bx T
bx %
bx00 \
b1111000 Q
b1111000 S
b1110100 l
b1110000 ,"
b1101100 A"
b1101100 H"
b1111100 N
b1111100 >
b10000000 O
bx K
b100 M
0&
#315
1&
#320
bx T
bx %
bx00 \
b1110000 A"
b1110000 H"
b1110100 ,"
b1111000 l
b1111100 Q
b1111100 S
b10000000 N
b10000000 >
b10000100 O
bx K
b100 M
0&
#325
1&
#330
bx T
bx %
bx00 \
b10000000 Q
b10000000 S
b1111100 l
b1111000 ,"
b1110100 A"
b1110100 H"
b10000100 N
b10000100 >
b10001000 O
bx K
b100 M
0&
#335
1&
#340
bx T
bx %
bx00 \
b1111000 A"
b1111000 H"
b1111100 ,"
b10000000 l
b10000100 Q
b10000100 S
b10001000 N
b10001000 >
b10001100 O
bx K
b100 M
0&
#345
1&
#350
bx T
bx %
bx00 \
b10001000 Q
b10001000 S
b10000100 l
b10000000 ,"
b1111100 A"
b1111100 H"
b10001100 N
b10001100 >
b10010000 O
bx K
b100 M
0&
#355
1&
#360
bx T
bx %
bx00 \
b10000000 A"
b10000000 H"
b10000100 ,"
b10001000 l
b10001100 Q
b10001100 S
b10010000 N
b10010000 >
b10010100 O
bx K
b100 M
0&
#365
1&
#370
bx T
bx %
bx00 \
b10010000 Q
b10010000 S
b10001100 l
b10001000 ,"
b10000100 A"
b10000100 H"
b10010100 N
b10010100 >
b10011000 O
bx K
b100 M
0&
#375
1&
#380
bx T
bx %
bx00 \
b10001000 A"
b10001000 H"
b10001100 ,"
b10010000 l
b10010100 Q
b10010100 S
b10011000 N
b10011000 >
b10011100 O
bx K
b100 M
0&
#385
1&
#390
bx T
bx %
bx00 \
b10011000 Q
b10011000 S
b10010100 l
b10010000 ,"
b10001100 A"
b10001100 H"
b10011100 N
b10011100 >
b10100000 O
bx K
b100 M
0&
#395
1&
#400
bx T
bx %
bx00 \
b10010000 A"
b10010000 H"
b10010100 ,"
b10011000 l
b10011100 Q
b10011100 S
b10100000 N
b10100000 >
b10100100 O
bx K
b100 M
0&
#405
1&
#410
bx T
bx %
bx00 \
b10100000 Q
b10100000 S
b10011100 l
b10011000 ,"
b10010100 A"
b10010100 H"
b10100100 N
b10100100 >
b10101000 O
bx K
b100 M
0&
#415
1&
#420
bx T
bx %
bx00 \
b10011000 A"
b10011000 H"
b10011100 ,"
b10100000 l
b10100100 Q
b10100100 S
b10101000 N
b10101000 >
b10101100 O
bx K
b100 M
0&
#425
1&
#430
bx T
bx %
bx00 \
b10101000 Q
b10101000 S
b10100100 l
b10100000 ,"
b10011100 A"
b10011100 H"
b10101100 N
b10101100 >
b10110000 O
bx K
b100 M
0&
#435
1&
#440
bx T
bx %
bx00 \
b10100000 A"
b10100000 H"
b10100100 ,"
b10101000 l
b10101100 Q
b10101100 S
b10110000 N
b10110000 >
b10110100 O
bx K
b100 M
0&
#445
1&
#450
bx T
bx %
bx00 \
b10110000 Q
b10110000 S
b10101100 l
b10101000 ,"
b10100100 A"
b10100100 H"
b10110100 N
b10110100 >
b10111000 O
bx K
b100 M
0&
#455
1&
#460
bx T
bx %
bx00 \
b10101000 A"
b10101000 H"
b10101100 ,"
b10110000 l
b10110100 Q
b10110100 S
b10111000 N
b10111000 >
b10111100 O
bx K
b100 M
0&
#465
1&
#470
bx T
bx %
bx00 \
b10111000 Q
b10111000 S
b10110100 l
b10110000 ,"
b10101100 A"
b10101100 H"
b10111100 N
b10111100 >
b11000000 O
bx K
b100 M
0&
#475
1&
#480
bx T
bx %
bx00 \
b10110000 A"
b10110000 H"
b10110100 ,"
b10111000 l
b10111100 Q
b10111100 S
b11000000 N
b11000000 >
b11000100 O
bx K
b100 M
0&
#485
1&
#490
bx T
bx %
bx00 \
b11000000 Q
b11000000 S
b10111100 l
b10111000 ,"
b10110100 A"
b10110100 H"
b11000100 N
b11000100 >
b11001000 O
bx K
b100 M
0&
#495
1&
#500
bx T
bx %
bx00 \
b10111000 A"
b10111000 H"
b10111100 ,"
b11000000 l
b11000100 Q
b11000100 S
b11001000 N
b11001000 >
b11001100 O
bx K
b100 M
0&
#505
1&
#510
bx T
bx %
bx00 \
b11001000 Q
b11001000 S
b11000100 l
b11000000 ,"
b10111100 A"
b10111100 H"
b11001100 N
b11001100 >
b11010000 O
bx K
b100 M
0&
#515
1&
#520
bx T
bx %
bx00 \
b11000000 A"
b11000000 H"
b11000100 ,"
b11001000 l
b11001100 Q
b11001100 S
b11010000 N
b11010000 >
b11010100 O
bx K
b100 M
0&
#525
1&
#530
bx T
bx %
bx00 \
b11010000 Q
b11010000 S
b11001100 l
b11001000 ,"
b11000100 A"
b11000100 H"
b11010100 N
b11010100 >
b11011000 O
bx K
b100 M
0&
#535
1&
#540
bx T
bx %
bx00 \
b11001000 A"
b11001000 H"
b11001100 ,"
b11010000 l
b11010100 Q
b11010100 S
b11011000 N
b11011000 >
b11011100 O
bx K
b100 M
0&
#545
1&
#550
bx T
bx %
bx00 \
b11011000 Q
b11011000 S
b11010100 l
b11010000 ,"
b11001100 A"
b11001100 H"
b11011100 N
b11011100 >
b11100000 O
bx K
b100 M
0&
#555
1&
#560
bx T
bx %
bx00 \
b11010000 A"
b11010000 H"
b11010100 ,"
b11011000 l
b11011100 Q
b11011100 S
b11100000 N
b11100000 >
b11100100 O
bx K
b100 M
0&
#565
1&
#570
bx T
bx %
bx00 \
b11100000 Q
b11100000 S
b11011100 l
b11011000 ,"
b11010100 A"
b11010100 H"
b11100100 N
b11100100 >
b11101000 O
bx K
b100 M
0&
#575
1&
#580
bx T
bx %
bx00 \
b11011000 A"
b11011000 H"
b11011100 ,"
b11100000 l
b11100100 Q
b11100100 S
b11101000 N
b11101000 >
b11101100 O
bx K
b100 M
0&
#585
1&
#590
bx T
bx %
bx00 \
b11101000 Q
b11101000 S
b11100100 l
b11100000 ,"
b11011100 A"
b11011100 H"
b11101100 N
b11101100 >
b11110000 O
bx K
b100 M
0&
#595
1&
#600
bx T
bx %
bx00 \
b11100000 A"
b11100000 H"
b11100100 ,"
b11101000 l
b11101100 Q
b11101100 S
b11110000 N
b11110000 >
b11110100 O
bx K
b100 M
0&
#605
1&
#610
bx T
bx %
bx00 \
b11110000 Q
b11110000 S
b11101100 l
b11101000 ,"
b11100100 A"
b11100100 H"
b11110100 N
b11110100 >
b11111000 O
bx K
b100 M
0&
#615
1&
#620
bx T
bx %
bx00 \
b11101000 A"
b11101000 H"
b11101100 ,"
b11110000 l
b11110100 Q
b11110100 S
b11111000 N
b11111000 >
b11111100 O
bx K
b100 M
0&
#625
1&
#630
bx T
bx %
bx00 \
b11111000 Q
b11111000 S
b11110100 l
b11110000 ,"
b11101100 A"
b11101100 H"
b11111100 N
b11111100 >
b100000000 O
bx K
b100 M
0&
#635
1&
#640
bx T
bx %
bx00 \
b11110000 A"
b11110000 H"
b11110100 ,"
b11111000 l
b11111100 Q
b11111100 S
b100000000 N
b100000000 >
b100000100 O
bx K
b100 M
0&
#645
1&
#650
bx T
bx %
bx00 \
b100000000 Q
b100000000 S
b11111100 l
b11111000 ,"
b11110100 A"
b11110100 H"
b100000100 N
b100000100 >
b100001000 O
bx K
b100 M
0&
#655
1&
#660
bx T
bx %
bx00 \
b11111000 A"
b11111000 H"
b11111100 ,"
b100000000 l
b100000100 Q
b100000100 S
b100001000 N
b100001000 >
b100001100 O
bx K
b100 M
0&
#665
1&
#670
bx T
bx %
bx00 \
b100001000 Q
b100001000 S
b100000100 l
b100000000 ,"
b11111100 A"
b11111100 H"
b100001100 N
b100001100 >
b100010000 O
bx K
b100 M
0&
#675
1&
#680
bx T
bx %
bx00 \
b100000000 A"
b100000000 H"
b100000100 ,"
b100001000 l
b100001100 Q
b100001100 S
b100010000 N
b100010000 >
b100010100 O
bx K
b100 M
0&
#685
1&
#690
bx T
bx %
bx00 \
b100010000 Q
b100010000 S
b100001100 l
b100001000 ,"
b100000100 A"
b100000100 H"
b100010100 N
b100010100 >
b100011000 O
bx K
b100 M
0&
#695
1&
#700
bx T
bx %
bx00 \
b100001000 A"
b100001000 H"
b100001100 ,"
b100010000 l
b100010100 Q
b100010100 S
b100011000 N
b100011000 >
b100011100 O
bx K
b100 M
0&
#705
1&
#710
bx T
bx %
bx00 \
b100011000 Q
b100011000 S
b100010100 l
b100010000 ,"
b100001100 A"
b100001100 H"
b100011100 N
b100011100 >
b100100000 O
bx K
b100 M
0&
#715
1&
#720
bx T
bx %
bx00 \
b100010000 A"
b100010000 H"
b100010100 ,"
b100011000 l
b100011100 Q
b100011100 S
b100100000 N
b100100000 >
b100100100 O
bx K
b100 M
0&
#725
1&
#730
bx T
bx %
bx00 \
b100100000 Q
b100100000 S
b100011100 l
b100011000 ,"
b100010100 A"
b100010100 H"
b100100100 N
b100100100 >
b100101000 O
bx K
b100 M
0&
#735
1&
#740
bx T
bx %
bx00 \
b100011000 A"
b100011000 H"
b100011100 ,"
b100100000 l
b100100100 Q
b100100100 S
b100101000 N
b100101000 >
b100101100 O
bx K
b100 M
0&
#745
1&
#750
bx T
bx %
bx00 \
b100101000 Q
b100101000 S
b100100100 l
b100100000 ,"
b100011100 A"
b100011100 H"
b100101100 N
b100101100 >
b100110000 O
bx K
b100 M
0&
#755
1&
#760
bx T
bx %
bx00 \
b100100000 A"
b100100000 H"
b100100100 ,"
b100101000 l
b100101100 Q
b100101100 S
b100110000 N
b100110000 >
b100110100 O
bx K
b100 M
0&
#765
1&
#770
bx T
bx %
bx00 \
b100110000 Q
b100110000 S
b100101100 l
b100101000 ,"
b100100100 A"
b100100100 H"
b100110100 N
b100110100 >
b100111000 O
bx K
b100 M
0&
#775
1&
#780
bx T
bx %
bx00 \
b100101000 A"
b100101000 H"
b100101100 ,"
b100110000 l
b100110100 Q
b100110100 S
b100111000 N
b100111000 >
b100111100 O
bx K
b100 M
0&
#785
1&
